{
	"About": {
		"pitch":"My name is Conor Kelly and I am an interactive diviner: I design intuitive user experiences and develop the front-end user-interfaces that drive them. <span class='blue'>cKellyDesign’s</span> goal is to create captivating and engaging communication systems.",
		"highlights": [
			{
			"title": "Powerful Designer",
			"paragraph": "My roots are within design, driving my appreciation for properly executed principles including typography, negative space, chunking and much more. I create engaging dialogue, drawing the user further into the experience.",
			"bullets": [
				"Typography",
				"Iconography",
				"Clean & Striking Style"
				]
			},
			{
			"title": "Innovative Developer",
			"paragraph": "UPDATE THIS BEFORE LAUNCH!! As a code junky I think and see in code with a high aptitude for front-end development and MVC frameworks. I develop responsively and compatibly to ensure maximum accessibility for the user.",
			"bullets": [
				"Responsive Frameworks",
				"Iterative Workflows",
				"CSS3, HTML5, JS, JQuery, PHP"
				]
			},
			{
			"title": "Passionate Marketer",
			"paragraph": "With diverse experience in implementing web communications, I have witnessed the immense impact of design campaigns. In result I produce effective and compelling organizational identities and subsequent digital marketing.",
			"bullets": [
				"Brand Research & Development",
				"Web & Print Collateral",
				"User Experience Optimization"
				]
			}
		]
	},
	"Projects": [
		{
			"title": "LivelyHoods",
			"slug": "LHAP",
			"tags":[],
			"mainImage": {
				"lowRes": "LHAP-galThumb.jpg",
				"highRes": "",
				"feature": ""
			},
			"description": "With the non-profit organization LivelyHoods I had a chance to develope their first ever annual report. Additionally I am providing graphic design support for internal and external materials and redefining the LivelyHoods/iSmart brand relation.",
			"bullets": [
				"Graphic Design",
				"Visual Communications",
				"Brand Design",
				"Internal/External Materials"
			],
			"gallery": [
				{
					"thumb": "LHAP-thumb1.jpg",
					"gal": "LHAP-Gal1.jpg",
					"fullRes": "LHAP-1.jpg",
					"otherLink": ""
				},
				{
					"thumb": "LHAP-thumb2.jpg",
					"gal": "LHAP-Gal2.jpg",
					"fullRes": "LHAP-2.jpg",
					"otherLink": ""
				},
				{
					"thumb": "LHAP-thumb3.jpg",
					"gal": "LHAP-Gal3.jpg",
					"fullRes": "LHAP-3.jpg",
					"otherLink": ""
				},
				{
					"thumb": "LHAP-thumb4.jpg",
					"gal": "LHAP-Gal4.jpg",
					"fullRes": "LHAP-4.jpg",
					"otherLink": ""
				}
			]
		},
		{
			"title": "nbcnews.com",
			"slug": "nbcnews",
			"tags":[],
			"mainImage": {
				"lowRes": "nbcnews-feat.jpg",
				"highRes": "",
				"feature": ""
			},
			"description": "I worked on the highly agile NBC UX Team and provided Front End development to launch nbcnews.com. While I contributed to the progressively enhancing \"Premium Experience\", I took on the major role of re-devolping the gracefully degrading \"Baseline Experience\" to ensure compatibility among legacy browsers.",
			"bullets": [
				"UI/UX",
				"Github",
				"Agile Workflow",
				"Browser Compatibility",
				"Responisve Design"
			],
			"gallery": [
				{
					"thumb": "nbcnews-thumb1.jpg",
					"gal": "nbcnews-gal1.jpg",
					"fullRes": "nbcnews-1.jpg",
					"otherLink": ""
				},
				{
					"thumb": "nbcnews-thumb2.jpg",
					"gal": "nbcnews-gal2.jpg",
					"fullRes": "nbcnews-2.jpg",
					"otherLink": ""
				},
				{
					"thumb": "nbcnews-thumb3.jpg",
					"gal": "nbcnews-gal3.jpg",
					"fullRes": "nbcnews-3.jpg",
					"otherLink": ""
				},
				{
					"thumb": "nbcnews-thumb4.jpg",
					"gal": "nbcnews-gal4.jpg",
					"fullRes": "nbcnews-4.jpg",
					"otherLink": ""
				},
				{
					"thumb": "nbcnews-thumb5.jpg",
					"gal": "nbcnews-gal5.jpg",
					"fullRes": "nbcnews-5.jpg",
					"otherLink": ""
				},
				{
					"thumb": "nbcnews-thumb6.jpg",
					"gal": "nbcnews-gal6.jpg",
					"fullRes": "nbcnews-6.jpg",
					"otherLink": ""
				},
				{
					"thumb": "nbcnews-thumb7.jpg",
					"gal": "nbcnews-gal7.jpg",
					"fullRes": "nbcnews-7.jpg",
					"otherLink": ""
				}
				
			]
		},
		{
			"title": "MSNBC.com",
			"slug": "msnbc",
			"tags":[],
			"mainImage": {
				"lowRes": "msnbc-galThumb.jpg",
				"highRes": "",
				"feature": ""
			},
			"description": "I provided NBC with Front End design support to launch msnbc.com, ensuring the consistency and coherency of NBC's user experience across all browsers and devices. Currently I administer ongoing assistance to ensure effective communication.",
			"bullets": [
				"UI/UX",
				"Graceful Degredation",
				"Responisve Design",
				"Quality Assurance"
			],
			"gallery": [
				{
					"thumb": "msnbc-thumb1.jpg",
					"gal": "msnbc-Gal1a.jpg",
					"fullRes": "msnbc-1.jpg",
					"otherLink": ""
				},
				{
					"thumb": "msnbc-thumb2.jpg",
					"gal": "msnbc-Gal2a.jpg",
					"fullRes": "msnbc-2b.jpg",
					"otherLink": ""
				},
				{
					"thumb": "msnbc-thumb3.jpg",
					"gal": "msnbc-Gal3a.jpg",
					"fullRes": "msnbc-3a.jpg",
					"otherLink": ""
				},
				{
					"thumb": "msnbc-thumb4.jpg",
					"gal": "msnbc-Gal4a.jpg",
					"fullRes": "msnbc-4a.jpg",
					"otherLink": ""
				},
				{
					"thumb": "msnbc-thumb5.jpg",
					"gal": "msnbc-Gal5.jpg",
					"fullRes": "msnbc-5.jpg",
					"otherLink": ""
				},
				{
					"thumb": "msnbc-thumb6.jpg",
					"gal": "msnbc-Gal6.jpg",
					"fullRes": "msnbc-6.jpg",
					"otherLink": ""
				}
			]
		},
		{
			"title": "YP Responsive Template Framework",
			"slug": "TemplateFramework",
			"tags":[],
			"mainImage": {
				"lowRes": "TemplateFramework-Feat3.jpg",
				"highRes": "",
				"feature": ""
			},
			"description": "Most of my time at YP Holdings I was on the Research and Development team working on YP's new DIY web product designing, developing, and distributing front-end frameworks for my team.",
			"bullets": [
				"Responsive Design",
				"HTML5, CSS3, JavaScript, jQuery",
				"Project Management",
				"Quality Assurance"
			],
			"gallery": [
				{
					"thumb": "TemplateFramework-Thumb1.jpg",
					"gal": "TemplateFramework-Gal1b.jpg",
					"fullRes": "",
					"otherLink": {
						"type": "zip",
						"src": "TemplateFramework-1-Frameworks.zip"
					}
				},
				{
					"thumb": "TemplateFramework-Thumb2.jpg",
					"gal": "TemplateFramework-Gal2b.jpg",
					"fullRes": "",
					"otherLink": {
						"type": "popup",
						"src": "TemplateFramework-2-HealthWellness/HealthWellness.html"
					}
				},
				{
					"thumb": "TemplateFramework-Thumb3.jpg",
					"gal": "TemplateFramework-Gal3b.jpg",
					"fullRes": "",
					"otherLink": {
						"type": "popup",
						"src": "TemplateFramework-3-Locksmith/Locksmith.html"
					}
				},
				{
					"thumb": "TemplateFramework-Thumb4.jpg",
					"gal": "TemplateFramework-Gal4b.jpg",
					"fullRes": "",
					"otherLink": {
						"type": "popup",
						"src": "TemplateFramework-4-Fitness/Fitness.html"
					}
				},
				{
					"thumb": "TemplateFramework-Thumb5.jpg",
					"gal": "TemplateFramework-Gal5b.jpg",
					"fullRes": "",
					"otherLink": {
						"type": "popup",
						"src": "TemplateFramework-5-MartialArts/MartialArts.html"
					}
				}
			]
		}
	],
	"Contact": {
		"blurb": "<p>Currently located in Nairobi, Kenya <br>I work both domestically and internationally. I am available for freelance and/or telecommuting opportunities.<p><p class='blue'>Contact me today for your web communication needs!</p>"
	}
}